{
	"id": "e5cd68bea7057f2ce1879b95ef7fcb14",
	"_format": "hh-sol-build-info-1",
	"solcVersion": "0.8.12",
	"solcLongVersion": "0.8.12+commit.f00d7308",
	"input": {
		"language": "Solidity",
		"sources": {
			"Solidity/solidity_course/1.Data_types_in_solidity/IDataTypesPractice.sol": {
				"content": "// SPDX-License-Identifier: UNLICENSED\npragma solidity 0.8.12;\n\ninterface IDataTypesPractice {\n    function getInt256() external view returns(int256);\n    function getUint256() external view returns(uint256);\n    function getIint8() external view returns(int8);\n    function getUint8() external view returns(uint8);\n    function getBool() external view returns(bool);\n    function getAddress() external view returns(address);\n    function getBytes32() external view returns(bytes32);\n    function getArrayUint5() external view returns(uint256[5] memory);\n    function getArrayUint() external view returns(uint256[] memory);\n    function getString() external view returns(string memory);\n\n    function getBigUint() external pure returns(uint256);\n}"
			}
		},
		"settings": {
			"optimizer": {
				"enabled": false,
				"runs": 200
			},
			"outputSelection": {
				"*": {
					"": [
						"ast"
					],
					"*": [
						"abi",
						"metadata",
						"devdoc",
						"userdoc",
						"storageLayout",
						"evm.legacyAssembly",
						"evm.bytecode",
						"evm.deployedBytecode",
						"evm.methodIdentifiers",
						"evm.gasEstimates",
						"evm.assembly"
					]
				}
			}
		}
	},
	"output": {
		"contracts": {
			"Solidity/solidity_course/1.Data_types_in_solidity/IDataTypesPractice.sol": {
				"IDataTypesPractice": {
					"abi": [
						{
							"inputs": [],
							"name": "getAddress",
							"outputs": [
								{
									"internalType": "address",
									"name": "",
									"type": "address"
								}
							],
							"stateMutability": "view",
							"type": "function"
						},
						{
							"inputs": [],
							"name": "getArrayUint",
							"outputs": [
								{
									"internalType": "uint256[]",
									"name": "",
									"type": "uint256[]"
								}
							],
							"stateMutability": "view",
							"type": "function"
						},
						{
							"inputs": [],
							"name": "getArrayUint5",
							"outputs": [
								{
									"internalType": "uint256[5]",
									"name": "",
									"type": "uint256[5]"
								}
							],
							"stateMutability": "view",
							"type": "function"
						},
						{
							"inputs": [],
							"name": "getBigUint",
							"outputs": [
								{
									"internalType": "uint256",
									"name": "",
									"type": "uint256"
								}
							],
							"stateMutability": "pure",
							"type": "function"
						},
						{
							"inputs": [],
							"name": "getBool",
							"outputs": [
								{
									"internalType": "bool",
									"name": "",
									"type": "bool"
								}
							],
							"stateMutability": "view",
							"type": "function"
						},
						{
							"inputs": [],
							"name": "getBytes32",
							"outputs": [
								{
									"internalType": "bytes32",
									"name": "",
									"type": "bytes32"
								}
							],
							"stateMutability": "view",
							"type": "function"
						},
						{
							"inputs": [],
							"name": "getIint8",
							"outputs": [
								{
									"internalType": "int8",
									"name": "",
									"type": "int8"
								}
							],
							"stateMutability": "view",
							"type": "function"
						},
						{
							"inputs": [],
							"name": "getInt256",
							"outputs": [
								{
									"internalType": "int256",
									"name": "",
									"type": "int256"
								}
							],
							"stateMutability": "view",
							"type": "function"
						},
						{
							"inputs": [],
							"name": "getString",
							"outputs": [
								{
									"internalType": "string",
									"name": "",
									"type": "string"
								}
							],
							"stateMutability": "view",
							"type": "function"
						},
						{
							"inputs": [],
							"name": "getUint256",
							"outputs": [
								{
									"internalType": "uint256",
									"name": "",
									"type": "uint256"
								}
							],
							"stateMutability": "view",
							"type": "function"
						},
						{
							"inputs": [],
							"name": "getUint8",
							"outputs": [
								{
									"internalType": "uint8",
									"name": "",
									"type": "uint8"
								}
							],
							"stateMutability": "view",
							"type": "function"
						}
					],
					"devdoc": {
						"kind": "dev",
						"methods": {},
						"version": 1
					},
					"evm": {
						"assembly": "",
						"bytecode": {
							"functionDebugData": {},
							"generatedSources": [],
							"linkReferences": {},
							"object": "",
							"opcodes": "",
							"sourceMap": ""
						},
						"deployedBytecode": {
							"functionDebugData": {},
							"generatedSources": [],
							"immutableReferences": {},
							"linkReferences": {},
							"object": "",
							"opcodes": "",
							"sourceMap": ""
						},
						"gasEstimates": null,
						"legacyAssembly": null,
						"methodIdentifiers": {
							"getAddress()": "38cc4831",
							"getArrayUint()": "c41b5530",
							"getArrayUint5()": "9032f58c",
							"getBigUint()": "958be696",
							"getBool()": "12a7b914",
							"getBytes32()": "1f903037",
							"getIint8()": "9e6fd381",
							"getInt256()": "f5b53e17",
							"getString()": "89ea642f",
							"getUint256()": "68895979",
							"getUint8()": "343a875d"
						}
					},
					"metadata": "{\"compiler\":{\"version\":\"0.8.12+commit.f00d7308\"},\"language\":\"Solidity\",\"output\":{\"abi\":[{\"inputs\":[],\"name\":\"getAddress\",\"outputs\":[{\"internalType\":\"address\",\"name\":\"\",\"type\":\"address\"}],\"stateMutability\":\"view\",\"type\":\"function\"},{\"inputs\":[],\"name\":\"getArrayUint\",\"outputs\":[{\"internalType\":\"uint256[]\",\"name\":\"\",\"type\":\"uint256[]\"}],\"stateMutability\":\"view\",\"type\":\"function\"},{\"inputs\":[],\"name\":\"getArrayUint5\",\"outputs\":[{\"internalType\":\"uint256[5]\",\"name\":\"\",\"type\":\"uint256[5]\"}],\"stateMutability\":\"view\",\"type\":\"function\"},{\"inputs\":[],\"name\":\"getBigUint\",\"outputs\":[{\"internalType\":\"uint256\",\"name\":\"\",\"type\":\"uint256\"}],\"stateMutability\":\"pure\",\"type\":\"function\"},{\"inputs\":[],\"name\":\"getBool\",\"outputs\":[{\"internalType\":\"bool\",\"name\":\"\",\"type\":\"bool\"}],\"stateMutability\":\"view\",\"type\":\"function\"},{\"inputs\":[],\"name\":\"getBytes32\",\"outputs\":[{\"internalType\":\"bytes32\",\"name\":\"\",\"type\":\"bytes32\"}],\"stateMutability\":\"view\",\"type\":\"function\"},{\"inputs\":[],\"name\":\"getIint8\",\"outputs\":[{\"internalType\":\"int8\",\"name\":\"\",\"type\":\"int8\"}],\"stateMutability\":\"view\",\"type\":\"function\"},{\"inputs\":[],\"name\":\"getInt256\",\"outputs\":[{\"internalType\":\"int256\",\"name\":\"\",\"type\":\"int256\"}],\"stateMutability\":\"view\",\"type\":\"function\"},{\"inputs\":[],\"name\":\"getString\",\"outputs\":[{\"internalType\":\"string\",\"name\":\"\",\"type\":\"string\"}],\"stateMutability\":\"view\",\"type\":\"function\"},{\"inputs\":[],\"name\":\"getUint256\",\"outputs\":[{\"internalType\":\"uint256\",\"name\":\"\",\"type\":\"uint256\"}],\"stateMutability\":\"view\",\"type\":\"function\"},{\"inputs\":[],\"name\":\"getUint8\",\"outputs\":[{\"internalType\":\"uint8\",\"name\":\"\",\"type\":\"uint8\"}],\"stateMutability\":\"view\",\"type\":\"function\"}],\"devdoc\":{\"kind\":\"dev\",\"methods\":{},\"version\":1},\"userdoc\":{\"kind\":\"user\",\"methods\":{},\"version\":1}},\"settings\":{\"compilationTarget\":{\"Solidity/solidity_course/1.Data_types_in_solidity/IDataTypesPractice.sol\":\"IDataTypesPractice\"},\"evmVersion\":\"london\",\"libraries\":{},\"metadata\":{\"bytecodeHash\":\"ipfs\"},\"optimizer\":{\"enabled\":false,\"runs\":200},\"remappings\":[]},\"sources\":{\"Solidity/solidity_course/1.Data_types_in_solidity/IDataTypesPractice.sol\":{\"keccak256\":\"0xa53bc713f85ee5f6a474e937086caf72e228ec3d127b10fdebd53f3edfe66f27\",\"license\":\"UNLICENSED\",\"urls\":[\"bzz-raw://728e1c7df8d5f314ccddb65277ca252a800900bfe8be5afc21585e8b926fcad6\",\"dweb:/ipfs/QmTzwQEPXVCKQ777FmGvKzsPWcHxTb4DsJKqpu7XE9QWPU\"]}},\"version\":1}",
					"storageLayout": {
						"storage": [],
						"types": null
					},
					"userdoc": {
						"kind": "user",
						"methods": {},
						"version": 1
					}
				}
			}
		},
		"sources": {
			"Solidity/solidity_course/1.Data_types_in_solidity/IDataTypesPractice.sol": {
				"ast": {
					"absolutePath": "Solidity/solidity_course/1.Data_types_in_solidity/IDataTypesPractice.sol",
					"exportedSymbols": {
						"IDataTypesPractice": [
							60
						]
					},
					"id": 61,
					"license": "UNLICENSED",
					"nodeType": "SourceUnit",
					"nodes": [
						{
							"id": 1,
							"literals": [
								"solidity",
								"0.8",
								".12"
							],
							"nodeType": "PragmaDirective",
							"src": "39:23:0"
						},
						{
							"abstract": false,
							"baseContracts": [],
							"canonicalName": "IDataTypesPractice",
							"contractDependencies": [],
							"contractKind": "interface",
							"fullyImplemented": false,
							"id": 60,
							"linearizedBaseContracts": [
								60
							],
							"name": "IDataTypesPractice",
							"nameLocation": "74:18:0",
							"nodeType": "ContractDefinition",
							"nodes": [
								{
									"functionSelector": "f5b53e17",
									"id": 6,
									"implemented": false,
									"kind": "function",
									"modifiers": [],
									"name": "getInt256",
									"nameLocation": "108:9:0",
									"nodeType": "FunctionDefinition",
									"parameters": {
										"id": 2,
										"nodeType": "ParameterList",
										"parameters": [],
										"src": "117:2:0"
									},
									"returnParameters": {
										"id": 5,
										"nodeType": "ParameterList",
										"parameters": [
											{
												"constant": false,
												"id": 4,
												"mutability": "mutable",
												"name": "",
												"nameLocation": "-1:-1:-1",
												"nodeType": "VariableDeclaration",
												"scope": 6,
												"src": "142:6:0",
												"stateVariable": false,
												"storageLocation": "default",
												"typeDescriptions": {
													"typeIdentifier": "t_int256",
													"typeString": "int256"
												},
												"typeName": {
													"id": 3,
													"name": "int256",
													"nodeType": "ElementaryTypeName",
													"src": "142:6:0",
													"typeDescriptions": {
														"typeIdentifier": "t_int256",
														"typeString": "int256"
													}
												},
												"visibility": "internal"
											}
										],
										"src": "141:8:0"
									},
									"scope": 60,
									"src": "99:51:0",
									"stateMutability": "view",
									"virtual": false,
									"visibility": "external"
								},
								{
									"functionSelector": "68895979",
									"id": 11,
									"implemented": false,
									"kind": "function",
									"modifiers": [],
									"name": "getUint256",
									"nameLocation": "164:10:0",
									"nodeType": "FunctionDefinition",
									"parameters": {
										"id": 7,
										"nodeType": "ParameterList",
										"parameters": [],
										"src": "174:2:0"
									},
									"returnParameters": {
										"id": 10,
										"nodeType": "ParameterList",
										"parameters": [
											{
												"constant": false,
												"id": 9,
												"mutability": "mutable",
												"name": "",
												"nameLocation": "-1:-1:-1",
												"nodeType": "VariableDeclaration",
												"scope": 11,
												"src": "199:7:0",
												"stateVariable": false,
												"storageLocation": "default",
												"typeDescriptions": {
													"typeIdentifier": "t_uint256",
													"typeString": "uint256"
												},
												"typeName": {
													"id": 8,
													"name": "uint256",
													"nodeType": "ElementaryTypeName",
													"src": "199:7:0",
													"typeDescriptions": {
														"typeIdentifier": "t_uint256",
														"typeString": "uint256"
													}
												},
												"visibility": "internal"
											}
										],
										"src": "198:9:0"
									},
									"scope": 60,
									"src": "155:53:0",
									"stateMutability": "view",
									"virtual": false,
									"visibility": "external"
								},
								{
									"functionSelector": "9e6fd381",
									"id": 16,
									"implemented": false,
									"kind": "function",
									"modifiers": [],
									"name": "getIint8",
									"nameLocation": "222:8:0",
									"nodeType": "FunctionDefinition",
									"parameters": {
										"id": 12,
										"nodeType": "ParameterList",
										"parameters": [],
										"src": "230:2:0"
									},
									"returnParameters": {
										"id": 15,
										"nodeType": "ParameterList",
										"parameters": [
											{
												"constant": false,
												"id": 14,
												"mutability": "mutable",
												"name": "",
												"nameLocation": "-1:-1:-1",
												"nodeType": "VariableDeclaration",
												"scope": 16,
												"src": "255:4:0",
												"stateVariable": false,
												"storageLocation": "default",
												"typeDescriptions": {
													"typeIdentifier": "t_int8",
													"typeString": "int8"
												},
												"typeName": {
													"id": 13,
													"name": "int8",
													"nodeType": "ElementaryTypeName",
													"src": "255:4:0",
													"typeDescriptions": {
														"typeIdentifier": "t_int8",
														"typeString": "int8"
													}
												},
												"visibility": "internal"
											}
										],
										"src": "254:6:0"
									},
									"scope": 60,
									"src": "213:48:0",
									"stateMutability": "view",
									"virtual": false,
									"visibility": "external"
								},
								{
									"functionSelector": "343a875d",
									"id": 21,
									"implemented": false,
									"kind": "function",
									"modifiers": [],
									"name": "getUint8",
									"nameLocation": "275:8:0",
									"nodeType": "FunctionDefinition",
									"parameters": {
										"id": 17,
										"nodeType": "ParameterList",
										"parameters": [],
										"src": "283:2:0"
									},
									"returnParameters": {
										"id": 20,
										"nodeType": "ParameterList",
										"parameters": [
											{
												"constant": false,
												"id": 19,
												"mutability": "mutable",
												"name": "",
												"nameLocation": "-1:-1:-1",
												"nodeType": "VariableDeclaration",
												"scope": 21,
												"src": "308:5:0",
												"stateVariable": false,
												"storageLocation": "default",
												"typeDescriptions": {
													"typeIdentifier": "t_uint8",
													"typeString": "uint8"
												},
												"typeName": {
													"id": 18,
													"name": "uint8",
													"nodeType": "ElementaryTypeName",
													"src": "308:5:0",
													"typeDescriptions": {
														"typeIdentifier": "t_uint8",
														"typeString": "uint8"
													}
												},
												"visibility": "internal"
											}
										],
										"src": "307:7:0"
									},
									"scope": 60,
									"src": "266:49:0",
									"stateMutability": "view",
									"virtual": false,
									"visibility": "external"
								},
								{
									"functionSelector": "12a7b914",
									"id": 26,
									"implemented": false,
									"kind": "function",
									"modifiers": [],
									"name": "getBool",
									"nameLocation": "329:7:0",
									"nodeType": "FunctionDefinition",
									"parameters": {
										"id": 22,
										"nodeType": "ParameterList",
										"parameters": [],
										"src": "336:2:0"
									},
									"returnParameters": {
										"id": 25,
										"nodeType": "ParameterList",
										"parameters": [
											{
												"constant": false,
												"id": 24,
												"mutability": "mutable",
												"name": "",
												"nameLocation": "-1:-1:-1",
												"nodeType": "VariableDeclaration",
												"scope": 26,
												"src": "361:4:0",
												"stateVariable": false,
												"storageLocation": "default",
												"typeDescriptions": {
													"typeIdentifier": "t_bool",
													"typeString": "bool"
												},
												"typeName": {
													"id": 23,
													"name": "bool",
													"nodeType": "ElementaryTypeName",
													"src": "361:4:0",
													"typeDescriptions": {
														"typeIdentifier": "t_bool",
														"typeString": "bool"
													}
												},
												"visibility": "internal"
											}
										],
										"src": "360:6:0"
									},
									"scope": 60,
									"src": "320:47:0",
									"stateMutability": "view",
									"virtual": false,
									"visibility": "external"
								},
								{
									"functionSelector": "38cc4831",
									"id": 31,
									"implemented": false,
									"kind": "function",
									"modifiers": [],
									"name": "getAddress",
									"nameLocation": "381:10:0",
									"nodeType": "FunctionDefinition",
									"parameters": {
										"id": 27,
										"nodeType": "ParameterList",
										"parameters": [],
										"src": "391:2:0"
									},
									"returnParameters": {
										"id": 30,
										"nodeType": "ParameterList",
										"parameters": [
											{
												"constant": false,
												"id": 29,
												"mutability": "mutable",
												"name": "",
												"nameLocation": "-1:-1:-1",
												"nodeType": "VariableDeclaration",
												"scope": 31,
												"src": "416:7:0",
												"stateVariable": false,
												"storageLocation": "default",
												"typeDescriptions": {
													"typeIdentifier": "t_address",
													"typeString": "address"
												},
												"typeName": {
													"id": 28,
													"name": "address",
													"nodeType": "ElementaryTypeName",
													"src": "416:7:0",
													"stateMutability": "nonpayable",
													"typeDescriptions": {
														"typeIdentifier": "t_address",
														"typeString": "address"
													}
												},
												"visibility": "internal"
											}
										],
										"src": "415:9:0"
									},
									"scope": 60,
									"src": "372:53:0",
									"stateMutability": "view",
									"virtual": false,
									"visibility": "external"
								},
								{
									"functionSelector": "1f903037",
									"id": 36,
									"implemented": false,
									"kind": "function",
									"modifiers": [],
									"name": "getBytes32",
									"nameLocation": "439:10:0",
									"nodeType": "FunctionDefinition",
									"parameters": {
										"id": 32,
										"nodeType": "ParameterList",
										"parameters": [],
										"src": "449:2:0"
									},
									"returnParameters": {
										"id": 35,
										"nodeType": "ParameterList",
										"parameters": [
											{
												"constant": false,
												"id": 34,
												"mutability": "mutable",
												"name": "",
												"nameLocation": "-1:-1:-1",
												"nodeType": "VariableDeclaration",
												"scope": 36,
												"src": "474:7:0",
												"stateVariable": false,
												"storageLocation": "default",
												"typeDescriptions": {
													"typeIdentifier": "t_bytes32",
													"typeString": "bytes32"
												},
												"typeName": {
													"id": 33,
													"name": "bytes32",
													"nodeType": "ElementaryTypeName",
													"src": "474:7:0",
													"typeDescriptions": {
														"typeIdentifier": "t_bytes32",
														"typeString": "bytes32"
													}
												},
												"visibility": "internal"
											}
										],
										"src": "473:9:0"
									},
									"scope": 60,
									"src": "430:53:0",
									"stateMutability": "view",
									"virtual": false,
									"visibility": "external"
								},
								{
									"functionSelector": "9032f58c",
									"id": 43,
									"implemented": false,
									"kind": "function",
									"modifiers": [],
									"name": "getArrayUint5",
									"nameLocation": "497:13:0",
									"nodeType": "FunctionDefinition",
									"parameters": {
										"id": 37,
										"nodeType": "ParameterList",
										"parameters": [],
										"src": "510:2:0"
									},
									"returnParameters": {
										"id": 42,
										"nodeType": "ParameterList",
										"parameters": [
											{
												"constant": false,
												"id": 41,
												"mutability": "mutable",
												"name": "",
												"nameLocation": "-1:-1:-1",
												"nodeType": "VariableDeclaration",
												"scope": 43,
												"src": "535:17:0",
												"stateVariable": false,
												"storageLocation": "memory",
												"typeDescriptions": {
													"typeIdentifier": "t_array$_t_uint256_$5_memory_ptr",
													"typeString": "uint256[5]"
												},
												"typeName": {
													"baseType": {
														"id": 38,
														"name": "uint256",
														"nodeType": "ElementaryTypeName",
														"src": "535:7:0",
														"typeDescriptions": {
															"typeIdentifier": "t_uint256",
															"typeString": "uint256"
														}
													},
													"id": 40,
													"length": {
														"hexValue": "35",
														"id": 39,
														"isConstant": false,
														"isLValue": false,
														"isPure": true,
														"kind": "number",
														"lValueRequested": false,
														"nodeType": "Literal",
														"src": "543:1:0",
														"typeDescriptions": {
															"typeIdentifier": "t_rational_5_by_1",
															"typeString": "int_const 5"
														},
														"value": "5"
													},
													"nodeType": "ArrayTypeName",
													"src": "535:10:0",
													"typeDescriptions": {
														"typeIdentifier": "t_array$_t_uint256_$5_storage_ptr",
														"typeString": "uint256[5]"
													}
												},
												"visibility": "internal"
											}
										],
										"src": "534:19:0"
									},
									"scope": 60,
									"src": "488:66:0",
									"stateMutability": "view",
									"virtual": false,
									"visibility": "external"
								},
								{
									"functionSelector": "c41b5530",
									"id": 49,
									"implemented": false,
									"kind": "function",
									"modifiers": [],
									"name": "getArrayUint",
									"nameLocation": "568:12:0",
									"nodeType": "FunctionDefinition",
									"parameters": {
										"id": 44,
										"nodeType": "ParameterList",
										"parameters": [],
										"src": "580:2:0"
									},
									"returnParameters": {
										"id": 48,
										"nodeType": "ParameterList",
										"parameters": [
											{
												"constant": false,
												"id": 47,
												"mutability": "mutable",
												"name": "",
												"nameLocation": "-1:-1:-1",
												"nodeType": "VariableDeclaration",
												"scope": 49,
												"src": "605:16:0",
												"stateVariable": false,
												"storageLocation": "memory",
												"typeDescriptions": {
													"typeIdentifier": "t_array$_t_uint256_$dyn_memory_ptr",
													"typeString": "uint256[]"
												},
												"typeName": {
													"baseType": {
														"id": 45,
														"name": "uint256",
														"nodeType": "ElementaryTypeName",
														"src": "605:7:0",
														"typeDescriptions": {
															"typeIdentifier": "t_uint256",
															"typeString": "uint256"
														}
													},
													"id": 46,
													"nodeType": "ArrayTypeName",
													"src": "605:9:0",
													"typeDescriptions": {
														"typeIdentifier": "t_array$_t_uint256_$dyn_storage_ptr",
														"typeString": "uint256[]"
													}
												},
												"visibility": "internal"
											}
										],
										"src": "604:18:0"
									},
									"scope": 60,
									"src": "559:64:0",
									"stateMutability": "view",
									"virtual": false,
									"visibility": "external"
								},
								{
									"functionSelector": "89ea642f",
									"id": 54,
									"implemented": false,
									"kind": "function",
									"modifiers": [],
									"name": "getString",
									"nameLocation": "637:9:0",
									"nodeType": "FunctionDefinition",
									"parameters": {
										"id": 50,
										"nodeType": "ParameterList",
										"parameters": [],
										"src": "646:2:0"
									},
									"returnParameters": {
										"id": 53,
										"nodeType": "ParameterList",
										"parameters": [
											{
												"constant": false,
												"id": 52,
												"mutability": "mutable",
												"name": "",
												"nameLocation": "-1:-1:-1",
												"nodeType": "VariableDeclaration",
												"scope": 54,
												"src": "671:13:0",
												"stateVariable": false,
												"storageLocation": "memory",
												"typeDescriptions": {
													"typeIdentifier": "t_string_memory_ptr",
													"typeString": "string"
												},
												"typeName": {
													"id": 51,
													"name": "string",
													"nodeType": "ElementaryTypeName",
													"src": "671:6:0",
													"typeDescriptions": {
														"typeIdentifier": "t_string_storage_ptr",
														"typeString": "string"
													}
												},
												"visibility": "internal"
											}
										],
										"src": "670:15:0"
									},
									"scope": 60,
									"src": "628:58:0",
									"stateMutability": "view",
									"virtual": false,
									"visibility": "external"
								},
								{
									"functionSelector": "958be696",
									"id": 59,
									"implemented": false,
									"kind": "function",
									"modifiers": [],
									"name": "getBigUint",
									"nameLocation": "701:10:0",
									"nodeType": "FunctionDefinition",
									"parameters": {
										"id": 55,
										"nodeType": "ParameterList",
										"parameters": [],
										"src": "711:2:0"
									},
									"returnParameters": {
										"id": 58,
										"nodeType": "ParameterList",
										"parameters": [
											{
												"constant": false,
												"id": 57,
												"mutability": "mutable",
												"name": "",
												"nameLocation": "-1:-1:-1",
												"nodeType": "VariableDeclaration",
												"scope": 59,
												"src": "736:7:0",
												"stateVariable": false,
												"storageLocation": "default",
												"typeDescriptions": {
													"typeIdentifier": "t_uint256",
													"typeString": "uint256"
												},
												"typeName": {
													"id": 56,
													"name": "uint256",
													"nodeType": "ElementaryTypeName",
													"src": "736:7:0",
													"typeDescriptions": {
														"typeIdentifier": "t_uint256",
														"typeString": "uint256"
													}
												},
												"visibility": "internal"
											}
										],
										"src": "735:9:0"
									},
									"scope": 60,
									"src": "692:53:0",
									"stateMutability": "pure",
									"virtual": false,
									"visibility": "external"
								}
							],
							"scope": 61,
							"src": "64:683:0",
							"usedErrors": []
						}
					],
					"src": "39:708:0"
				},
				"id": 0
			}
		}
	}
}