{
	"compiler": {
		"version": "0.8.12+commit.f00d7308"
	},
	"language": "Solidity",
	"output": {
		"abi": [
			{
				"inputs": [],
				"name": "getMyInfo",
				"outputs": [
					{
						"components": [
							{
								"internalType": "string",
								"name": "name",
								"type": "string"
							},
							{
								"internalType": "uint256",
								"name": "balance",
								"type": "uint256"
							},
							{
								"internalType": "bool",
								"name": "isActive",
								"type": "bool"
							}
						],
						"internalType": "struct IDataStructurePractice.User",
						"name": "",
						"type": "tuple"
					}
				],
				"stateMutability": "view",
				"type": "function"
			},
			{
				"inputs": [
					{
						"internalType": "address",
						"name": "_user",
						"type": "address"
					}
				],
				"name": "getUser",
				"outputs": [
					{
						"components": [
							{
								"internalType": "string",
								"name": "name",
								"type": "string"
							},
							{
								"internalType": "uint256",
								"name": "balance",
								"type": "uint256"
							},
							{
								"internalType": "bool",
								"name": "isActive",
								"type": "bool"
							}
						],
						"internalType": "struct IDataStructurePractice.User",
						"name": "",
						"type": "tuple"
					}
				],
				"stateMutability": "view",
				"type": "function"
			},
			{
				"inputs": [
					{
						"internalType": "address",
						"name": "_userAdr",
						"type": "address"
					},
					{
						"components": [
							{
								"internalType": "string",
								"name": "name",
								"type": "string"
							},
							{
								"internalType": "uint256",
								"name": "balance",
								"type": "uint256"
							},
							{
								"internalType": "bool",
								"name": "isActive",
								"type": "bool"
							}
						],
						"internalType": "struct IDataStructurePractice.User",
						"name": "_newUser",
						"type": "tuple"
					}
				],
				"name": "setNewUser",
				"outputs": [],
				"stateMutability": "nonpayable",
				"type": "function"
			}
		],
		"devdoc": {
			"kind": "dev",
			"methods": {},
			"version": 1
		},
		"userdoc": {
			"kind": "user",
			"methods": {},
			"version": 1
		}
	},
	"settings": {
		"compilationTarget": {
			"Solidity/course/2.Data_structures/IDataStructurePractice.sol": "IDataStructurePractice"
		},
		"evmVersion": "london",
		"libraries": {},
		"metadata": {
			"bytecodeHash": "ipfs"
		},
		"optimizer": {
			"enabled": false,
			"runs": 200
		},
		"remappings": []
	},
	"sources": {
		"Solidity/course/2.Data_structures/IDataStructurePractice.sol": {
			"keccak256": "0xdc469541ac43aa7b1947d060835b01ea77b00669de07c358d15450d76786fc9b",
			"license": "UNLICENSED",
			"urls": [
				"bzz-raw://63255d55ce4ec51f5d2ea44ad3645cb33880cf6bde82c783f846c99383ec923e",
				"dweb:/ipfs/QmWUGx1Qgk4GeUYkfPfcZqcbSByBMKRzPj3YMbrZJGeRgN"
			]
		}
	},
	"version": 1
}