{
	"deploy": {
		"VM:-": {
			"linkReferences": {},
			"autoDeployLib": true
		},
		"main:1": {
			"linkReferences": {},
			"autoDeployLib": true
		},
		"ropsten:3": {
			"linkReferences": {},
			"autoDeployLib": true
		},
		"rinkeby:4": {
			"linkReferences": {},
			"autoDeployLib": true
		},
		"kovan:42": {
			"linkReferences": {},
			"autoDeployLib": true
		},
		"goerli:5": {
			"linkReferences": {},
			"autoDeployLib": true
		},
		"Custom": {
			"linkReferences": {},
			"autoDeployLib": true
		}
	},
	"data": {
		"bytecode": {
			"functionDebugData": {},
			"generatedSources": [],
			"linkReferences": {},
			"object": "6080604052348015600f57600080fd5b50603f80601d6000396000f3fe6080604052600080fdfea2646970667358221220a773899302f547550db569bcb95039ed14e3b85f202757a840c687722130cf0264736f6c63430008090033",
			"opcodes": "PUSH1 0x80 PUSH1 0x40 MSTORE CALLVALUE DUP1 ISZERO PUSH1 0xF JUMPI PUSH1 0x0 DUP1 REVERT JUMPDEST POP PUSH1 0x3F DUP1 PUSH1 0x1D PUSH1 0x0 CODECOPY PUSH1 0x0 RETURN INVALID PUSH1 0x80 PUSH1 0x40 MSTORE PUSH1 0x0 DUP1 REVERT INVALID LOG2 PUSH5 0x6970667358 0x22 SLT KECCAK256 0xA7 PUSH20 0x899302F547550DB569BCB95039ED14E3B85F2027 JUMPI 0xA8 BLOCKHASH 0xC6 DUP8 PUSH19 0x2130CF0264736F6C6343000809003300000000 ",
			"sourceMap": "66:17:0:-:0;;;;;;;;;;;;;;;;;;;"
		},
		"deployedBytecode": {
			"functionDebugData": {},
			"generatedSources": [],
			"immutableReferences": {},
			"linkReferences": {},
			"object": "6080604052600080fdfea2646970667358221220a773899302f547550db569bcb95039ed14e3b85f202757a840c687722130cf0264736f6c63430008090033",
			"opcodes": "PUSH1 0x80 PUSH1 0x40 MSTORE PUSH1 0x0 DUP1 REVERT INVALID LOG2 PUSH5 0x6970667358 0x22 SLT KECCAK256 0xA7 PUSH20 0x899302F547550DB569BCB95039ED14E3B85F2027 JUMPI 0xA8 BLOCKHASH 0xC6 DUP8 PUSH19 0x2130CF0264736F6C6343000809003300000000 ",
			"sourceMap": "66:17:0:-:0;;;;;"
		},
		"gasEstimates": {
			"creation": {
				"codeDepositCost": "12600",
				"executionCost": "66",
				"totalCost": "12666"
			}
		},
		"methodIdentifiers": {}
	},
	"abi": []
}