{
	"deploy": {
		"VM:-": {
			"linkReferences": {},
			"autoDeployLib": true
		},
		"main:1": {
			"linkReferences": {},
			"autoDeployLib": true
		},
		"ropsten:3": {
			"linkReferences": {},
			"autoDeployLib": true
		},
		"rinkeby:4": {
			"linkReferences": {},
			"autoDeployLib": true
		},
		"kovan:42": {
			"linkReferences": {},
			"autoDeployLib": true
		},
		"goerli:5": {
			"linkReferences": {},
			"autoDeployLib": true
		},
		"Custom": {
			"linkReferences": {},
			"autoDeployLib": true
		}
	},
	"data": {
		"bytecode": {
			"functionDebugData": {},
			"generatedSources": [],
			"linkReferences": {},
			"object": "",
			"opcodes": "",
			"sourceMap": ""
		},
		"deployedBytecode": {
			"functionDebugData": {},
			"generatedSources": [],
			"immutableReferences": {},
			"linkReferences": {},
			"object": "",
			"opcodes": "",
			"sourceMap": ""
		},
		"gasEstimates": null,
		"methodIdentifiers": {
			"callExternalFallback(address)": "211cbf03",
			"callExternalReceive(address)": "2ce46dd3",
			"getSelector()": "034899bc",
			"setInternal(uint256)": "246a1c1f",
			"setPrivate(uint256)": "89cfd71b",
			"setPublic(uint256)": "31845f7d",
			"sum()": "853255cc",
			"sumFromSecond(address)": "cfeb8a77"
		}
	},
	"abi": [
		{
			"inputs": [
				{
					"internalType": "address payable",
					"name": "contractAddress",
					"type": "address"
				}
			],
			"name": "callExternalFallback",
			"outputs": [],
			"stateMutability": "payable",
			"type": "function"
		},
		{
			"inputs": [
				{
					"internalType": "address payable",
					"name": "contractAddress",
					"type": "address"
				}
			],
			"name": "callExternalReceive",
			"outputs": [],
			"stateMutability": "payable",
			"type": "function"
		},
		{
			"inputs": [],
			"name": "getSelector",
			"outputs": [
				{
					"internalType": "bytes",
					"name": "",
					"type": "bytes"
				}
			],
			"stateMutability": "pure",
			"type": "function"
		},
		{
			"inputs": [
				{
					"internalType": "uint256",
					"name": "num",
					"type": "uint256"
				}
			],
			"name": "setInternal",
			"outputs": [],
			"stateMutability": "nonpayable",
			"type": "function"
		},
		{
			"inputs": [
				{
					"internalType": "uint256",
					"name": "num",
					"type": "uint256"
				}
			],
			"name": "setPrivate",
			"outputs": [],
			"stateMutability": "nonpayable",
			"type": "function"
		},
		{
			"inputs": [
				{
					"internalType": "uint256",
					"name": "num",
					"type": "uint256"
				}
			],
			"name": "setPublic",
			"outputs": [],
			"stateMutability": "nonpayable",
			"type": "function"
		},
		{
			"inputs": [],
			"name": "sum",
			"outputs": [
				{
					"internalType": "uint256",
					"name": "",
					"type": "uint256"
				}
			],
			"stateMutability": "view",
			"type": "function"
		},
		{
			"inputs": [
				{
					"internalType": "address",
					"name": "contractAddress",
					"type": "address"
				}
			],
			"name": "sumFromSecond",
			"outputs": [
				{
					"internalType": "uint256",
					"name": "",
					"type": "uint256"
				}
			],
			"stateMutability": "nonpayable",
			"type": "function"
		}
	]
}