{
	"compiler": {
		"version": "0.8.9+commit.e5eed63a"
	},
	"language": "Solidity",
	"output": {
		"abi": [
			{
				"inputs": [
					{
						"internalType": "string",
						"name": "name_",
						"type": "string"
					},
					{
						"internalType": "string",
						"name": "symbol_",
						"type": "string"
					}
				],
				"stateMutability": "nonpayable",
				"type": "constructor"
			},
			{
				"anonymous": false,
				"inputs": [
					{
						"indexed": true,
						"internalType": "address",
						"name": "owner",
						"type": "address"
					},
					{
						"indexed": true,
						"internalType": "address",
						"name": "spender",
						"type": "address"
					},
					{
						"indexed": false,
						"internalType": "uint256",
						"name": "value",
						"type": "uint256"
					}
				],
				"name": "Approval",
				"type": "event"
			},
			{
				"anonymous": false,
				"inputs": [
					{
						"indexed": true,
						"internalType": "address",
						"name": "previousOwner",
						"type": "address"
					},
					{
						"indexed": true,
						"internalType": "address",
						"name": "newOwner",
						"type": "address"
					}
				],
				"name": "OwnershipTransferred",
				"type": "event"
			},
			{
				"anonymous": false,
				"inputs": [
					{
						"indexed": true,
						"internalType": "address",
						"name": "from",
						"type": "address"
					},
					{
						"indexed": true,
						"internalType": "address",
						"name": "to",
						"type": "address"
					},
					{
						"indexed": false,
						"internalType": "uint256",
						"name": "value",
						"type": "uint256"
					}
				],
				"name": "Transfer",
				"type": "event"
			},
			{
				"inputs": [
					{
						"internalType": "address",
						"name": "owner",
						"type": "address"
					},
					{
						"internalType": "address",
						"name": "spender",
						"type": "address"
					}
				],
				"name": "allowance",
				"outputs": [
					{
						"internalType": "uint256",
						"name": "",
						"type": "uint256"
					}
				],
				"stateMutability": "view",
				"type": "function"
			},
			{
				"inputs": [
					{
						"internalType": "address",
						"name": "spender",
						"type": "address"
					},
					{
						"internalType": "uint256",
						"name": "amount",
						"type": "uint256"
					}
				],
				"name": "approve",
				"outputs": [
					{
						"internalType": "bool",
						"name": "",
						"type": "bool"
					}
				],
				"stateMutability": "nonpayable",
				"type": "function"
			},
			{
				"inputs": [
					{
						"internalType": "address",
						"name": "account",
						"type": "address"
					}
				],
				"name": "balanceOf",
				"outputs": [
					{
						"internalType": "uint256",
						"name": "",
						"type": "uint256"
					}
				],
				"stateMutability": "view",
				"type": "function"
			},
			{
				"inputs": [
					{
						"internalType": "uint256",
						"name": "amount_",
						"type": "uint256"
					}
				],
				"name": "burn",
				"outputs": [],
				"stateMutability": "nonpayable",
				"type": "function"
			},
			{
				"inputs": [],
				"name": "decimals",
				"outputs": [
					{
						"internalType": "uint8",
						"name": "",
						"type": "uint8"
					}
				],
				"stateMutability": "view",
				"type": "function"
			},
			{
				"inputs": [
					{
						"internalType": "address",
						"name": "spender",
						"type": "address"
					},
					{
						"internalType": "uint256",
						"name": "subtractedValue",
						"type": "uint256"
					}
				],
				"name": "decreaseAllowance",
				"outputs": [
					{
						"internalType": "bool",
						"name": "",
						"type": "bool"
					}
				],
				"stateMutability": "nonpayable",
				"type": "function"
			},
			{
				"inputs": [
					{
						"internalType": "uint256",
						"name": "amount_",
						"type": "uint256"
					}
				],
				"name": "getResultingTransferAmount",
				"outputs": [
					{
						"internalType": "uint256",
						"name": "",
						"type": "uint256"
					}
				],
				"stateMutability": "view",
				"type": "function"
			},
			{
				"inputs": [
					{
						"internalType": "address",
						"name": "spender",
						"type": "address"
					},
					{
						"internalType": "uint256",
						"name": "addedValue",
						"type": "uint256"
					}
				],
				"name": "increaseAllowance",
				"outputs": [
					{
						"internalType": "bool",
						"name": "",
						"type": "bool"
					}
				],
				"stateMutability": "nonpayable",
				"type": "function"
			},
			{
				"inputs": [
					{
						"internalType": "address",
						"name": "to_",
						"type": "address"
					},
					{
						"internalType": "uint256",
						"name": "amount_",
						"type": "uint256"
					}
				],
				"name": "mint",
				"outputs": [],
				"stateMutability": "nonpayable",
				"type": "function"
			},
			{
				"inputs": [],
				"name": "name",
				"outputs": [
					{
						"internalType": "string",
						"name": "",
						"type": "string"
					}
				],
				"stateMutability": "view",
				"type": "function"
			},
			{
				"inputs": [],
				"name": "owner",
				"outputs": [
					{
						"internalType": "address",
						"name": "",
						"type": "address"
					}
				],
				"stateMutability": "view",
				"type": "function"
			},
			{
				"inputs": [],
				"name": "renounceOwnership",
				"outputs": [],
				"stateMutability": "nonpayable",
				"type": "function"
			},
			{
				"inputs": [],
				"name": "symbol",
				"outputs": [
					{
						"internalType": "string",
						"name": "",
						"type": "string"
					}
				],
				"stateMutability": "view",
				"type": "function"
			},
			{
				"inputs": [],
				"name": "totalSupply",
				"outputs": [
					{
						"internalType": "uint256",
						"name": "",
						"type": "uint256"
					}
				],
				"stateMutability": "view",
				"type": "function"
			},
			{
				"inputs": [
					{
						"internalType": "address",
						"name": "to",
						"type": "address"
					},
					{
						"internalType": "uint256",
						"name": "amount",
						"type": "uint256"
					}
				],
				"name": "transfer",
				"outputs": [
					{
						"internalType": "bool",
						"name": "",
						"type": "bool"
					}
				],
				"stateMutability": "nonpayable",
				"type": "function"
			},
			{
				"inputs": [
					{
						"internalType": "address",
						"name": "from",
						"type": "address"
					},
					{
						"internalType": "address",
						"name": "to",
						"type": "address"
					},
					{
						"internalType": "uint256",
						"name": "amount",
						"type": "uint256"
					}
				],
				"name": "transferFrom",
				"outputs": [
					{
						"internalType": "bool",
						"name": "",
						"type": "bool"
					}
				],
				"stateMutability": "nonpayable",
				"type": "function"
			},
			{
				"inputs": [
					{
						"internalType": "address",
						"name": "newOwner",
						"type": "address"
					}
				],
				"name": "transferOwnership",
				"outputs": [],
				"stateMutability": "nonpayable",
				"type": "function"
			},
			{
				"inputs": [],
				"name": "treasury",
				"outputs": [
					{
						"internalType": "address",
						"name": "",
						"type": "address"
					}
				],
				"stateMutability": "view",
				"type": "function"
			}
		],
		"devdoc": {
			"kind": "dev",
			"methods": {
				"allowance(address,address)": {
					"details": "See {IERC20-allowance}."
				},
				"approve(address,uint256)": {
					"details": "See {IERC20-approve}. NOTE: If `amount` is the maximum `uint256`, the allowance is not updated on `transferFrom`. This is semantically equivalent to an infinite approval. Requirements: - `spender` cannot be the zero address."
				},
				"balanceOf(address)": {
					"details": "See {IERC20-balanceOf}."
				},
				"decimals()": {
					"details": "Returns the number of decimals used to get its user representation. For example, if `decimals` equals `2`, a balance of `505` tokens should be displayed to a user as `5.05` (`505 / 10 ** 2`). Tokens usually opt for a value of 18, imitating the relationship between Ether and Wei. This is the value {ERC20} uses, unless this function is overridden; NOTE: This information is only used for _display_ purposes: it in no way affects any of the arithmetic of the contract, including {IERC20-balanceOf} and {IERC20-transfer}."
				},
				"decreaseAllowance(address,uint256)": {
					"details": "Atomically decreases the allowance granted to `spender` by the caller. This is an alternative to {approve} that can be used as a mitigation for problems described in {IERC20-approve}. Emits an {Approval} event indicating the updated allowance. Requirements: - `spender` cannot be the zero address. - `spender` must have allowance for the caller of at least `subtractedValue`."
				},
				"increaseAllowance(address,uint256)": {
					"details": "Atomically increases the allowance granted to `spender` by the caller. This is an alternative to {approve} that can be used as a mitigation for problems described in {IERC20-approve}. Emits an {Approval} event indicating the updated allowance. Requirements: - `spender` cannot be the zero address."
				},
				"name()": {
					"details": "Returns the name of the token."
				},
				"owner()": {
					"details": "Returns the address of the current owner."
				},
				"renounceOwnership()": {
					"details": "Leaves the contract without owner. It will not be possible to call `onlyOwner` functions anymore. Can only be called by the current owner. NOTE: Renouncing ownership will leave the contract without an owner, thereby removing any functionality that is only available to the owner."
				},
				"symbol()": {
					"details": "Returns the symbol of the token, usually a shorter version of the name."
				},
				"totalSupply()": {
					"details": "See {IERC20-totalSupply}."
				},
				"transfer(address,uint256)": {
					"details": "See {IERC20-transfer}. Requirements: - `to` cannot be the zero address. - the caller must have a balance of at least `amount`."
				},
				"transferFrom(address,address,uint256)": {
					"details": "See {IERC20-transferFrom}. Emits an {Approval} event indicating the updated allowance. This is not required by the EIP. See the note at the beginning of {ERC20}. NOTE: Does not update the allowance if the current allowance is the maximum `uint256`. Requirements: - `from` and `to` cannot be the zero address. - `from` must have a balance of at least `amount`. - the caller must have allowance for ``from``'s tokens of at least `amount`."
				},
				"transferOwnership(address)": {
					"details": "Transfers ownership of the contract to a new account (`newOwner`). Can only be called by the current owner."
				}
			},
			"version": 1
		},
		"userdoc": {
			"kind": "user",
			"methods": {},
			"version": 1
		}
	},
	"settings": {
		"compilationTarget": {
			"Solidity/solidity_course/5.OOP_in_Solidity_task_discription/MrGreedyToken.sol": "MrGreedyToken"
		},
		"evmVersion": "london",
		"libraries": {},
		"metadata": {
			"bytecodeHash": "ipfs"
		},
		"optimizer": {
			"enabled": false,
			"runs": 200
		},
		"remappings": []
	},
	"sources": {
		"@openzeppelin/contracts/access/Ownable.sol": {
			"keccak256": "0xa94b34880e3c1b0b931662cb1c09e5dfa6662f31cba80e07c5ee71cd135c9673",
			"license": "MIT",
			"urls": [
				"bzz-raw://40fb1b5102468f783961d0af743f91b9980cf66b50d1d12009f6bb1869cea4d2",
				"dweb:/ipfs/QmYqEbJML4jB1GHbzD4cUZDtJg5wVwNm3vDJq1GbyDus8y"
			]
		},
		"@openzeppelin/contracts/token/ERC20/ERC20.sol": {
			"keccak256": "0x24b04b8aacaaf1a4a0719117b29c9c3647b1f479c5ac2a60f5ff1bb6d839c238",
			"license": "MIT",
			"urls": [
				"bzz-raw://43e46da9d9f49741ecd876a269e71bc7494058d7a8e9478429998adb5bc3eaa0",
				"dweb:/ipfs/QmUtp4cqzf22C5rJ76AabKADquGWcjsc33yjYXxXC4sDvy"
			]
		},
		"@openzeppelin/contracts/token/ERC20/IERC20.sol": {
			"keccak256": "0x9750c6b834f7b43000631af5cc30001c5f547b3ceb3635488f140f60e897ea6b",
			"license": "MIT",
			"urls": [
				"bzz-raw://5a7d5b1ef5d8d5889ad2ed89d8619c09383b80b72ab226e0fe7bde1636481e34",
				"dweb:/ipfs/QmebXWgtEfumQGBdVeM6c71McLixYXQP5Bk6kKXuoY4Bmr"
			]
		},
		"@openzeppelin/contracts/token/ERC20/extensions/IERC20Metadata.sol": {
			"keccak256": "0x8de418a5503946cabe331f35fe242d3201a73f67f77aaeb7110acb1f30423aca",
			"license": "MIT",
			"urls": [
				"bzz-raw://5a376d3dda2cb70536c0a45c208b29b34ac560c4cb4f513a42079f96ba47d2dd",
				"dweb:/ipfs/QmZQg6gn1sUpM8wHzwNvSnihumUCAhxD119MpXeKp8B9s8"
			]
		},
		"@openzeppelin/contracts/utils/Context.sol": {
			"keccak256": "0xe2e337e6dde9ef6b680e07338c493ebea1b5fd09b43424112868e9cc1706bca7",
			"license": "MIT",
			"urls": [
				"bzz-raw://6df0ddf21ce9f58271bdfaa85cde98b200ef242a05a3f85c2bc10a8294800a92",
				"dweb:/ipfs/QmRK2Y5Yc6BK7tGKkgsgn3aJEQGi5aakeSPZvS65PV8Xp3"
			]
		},
		"Solidity/solidity_course/5.OOP_in_Solidity_task_discription/IMrGreedyToken.sol": {
			"keccak256": "0xa8ef0d27b85fcff18340b9c11ef4e7dc424d299ee76e37ec18dd5f5d3af4c39b",
			"license": "UNLICENSED",
			"urls": [
				"bzz-raw://a58b73295490191279907591de1528f44f6a663e9cf7369e1713faf065a8765e",
				"dweb:/ipfs/QmdEGqeFu3UZS86tHzVBWutFerzxq3o2FTcJRbUJnm9jjx"
			]
		},
		"Solidity/solidity_course/5.OOP_in_Solidity_task_discription/ISimpleToken.sol": {
			"keccak256": "0x2586c948574b906711e57a5b6f3f92d00e35e0700652aac0a081c24169308019",
			"license": "UNLICENSED",
			"urls": [
				"bzz-raw://f783556ce270bed0cd09330db21250e86fc7ca826e091ca42391b32d57c19b7f",
				"dweb:/ipfs/QmPfWKiMP77eXj2Prg5ijCCC8YLPxvNyqjDNxkA3BPU2wq"
			]
		},
		"Solidity/solidity_course/5.OOP_in_Solidity_task_discription/MrGreedyToken.sol": {
			"keccak256": "0xffcb04fcb345913f020b58bca8e5562454a8d6ec0a44068a0738ae00be5ceaa0",
			"license": "UNLICENSED",
			"urls": [
				"bzz-raw://3a63125abfd58c696f553a3dfc03b0d0f0498a66d66b46f69cb1dd12219d661f",
				"dweb:/ipfs/QmUd3QMwa9ozaYBXM46a7VfkoSsBvuopRfPL5fj34KtP3J"
			]
		},
		"Solidity/solidity_course/5.OOP_in_Solidity_task_discription/SimpleToken.sol": {
			"keccak256": "0xd8ff21290faf22095a07eb573440eb2ae08e24ac7f3526782dd8eb507a4819f4",
			"license": "UNLICENSED",
			"urls": [
				"bzz-raw://08606b5ca8f35e8db7f86553a78cd694f15f889ba2c033f0183e83a7ec2d380f",
				"dweb:/ipfs/QmT5vZv9UkvJMWYJCEJNrguY2WdQfTkBryoBScrG7aFg3y"
			]
		}
	},
	"version": 1
}