{
	"id": "295fda791c68e32487e7f83059205bfa",
	"_format": "hh-sol-build-info-1",
	"solcVersion": "0.8.12",
	"solcLongVersion": "0.8.12+commit.f00d7308",
	"input": {
		"language": "Solidity",
		"sources": {
			"Solidity/course/2.Data_structures/checker/Context.sol": {
				"content": "// SPDX-License-Identifier: MIT\r\n// OpenZeppelin Contracts v4.4.1 (utils/Context.sol)\r\n\r\npragma solidity ^0.8.0;\r\n\r\n/**\r\n * @dev Provides information about the current execution context, including the\r\n * sender of the transaction and its data. While these are generally available\r\n * via msg.sender and msg.data, they should not be accessed in such a direct\r\n * manner, since when dealing with meta-transactions the account sending and\r\n * paying for execution may not be the actual sender (as far as an application\r\n * is concerned).\r\n *\r\n * This contract is only required for intermediate, library-like contracts.\r\n */\r\nabstract contract Context {\r\n    function _msgSender() internal view virtual returns (address) {\r\n        return msg.sender;\r\n    }\r\n\r\n    function _msgData() internal view virtual returns (bytes calldata) {\r\n        return msg.data;\r\n    }\r\n}"
			}
		},
		"settings": {
			"optimizer": {
				"enabled": false,
				"runs": 200
			},
			"outputSelection": {
				"*": {
					"": [
						"ast"
					],
					"*": [
						"abi",
						"metadata",
						"devdoc",
						"userdoc",
						"storageLayout",
						"evm.legacyAssembly",
						"evm.bytecode",
						"evm.deployedBytecode",
						"evm.methodIdentifiers",
						"evm.gasEstimates",
						"evm.assembly"
					]
				}
			}
		}
	},
	"output": {
		"contracts": {
			"Solidity/course/2.Data_structures/checker/Context.sol": {
				"Context": {
					"abi": [],
					"devdoc": {
						"details": "Provides information about the current execution context, including the sender of the transaction and its data. While these are generally available via msg.sender and msg.data, they should not be accessed in such a direct manner, since when dealing with meta-transactions the account sending and paying for execution may not be the actual sender (as far as an application is concerned). This contract is only required for intermediate, library-like contracts.",
						"kind": "dev",
						"methods": {},
						"version": 1
					},
					"evm": {
						"assembly": "",
						"bytecode": {
							"functionDebugData": {},
							"generatedSources": [],
							"linkReferences": {},
							"object": "",
							"opcodes": "",
							"sourceMap": ""
						},
						"deployedBytecode": {
							"functionDebugData": {},
							"generatedSources": [],
							"immutableReferences": {},
							"linkReferences": {},
							"object": "",
							"opcodes": "",
							"sourceMap": ""
						},
						"gasEstimates": null,
						"legacyAssembly": null,
						"methodIdentifiers": {}
					},
					"metadata": "{\"compiler\":{\"version\":\"0.8.12+commit.f00d7308\"},\"language\":\"Solidity\",\"output\":{\"abi\":[],\"devdoc\":{\"details\":\"Provides information about the current execution context, including the sender of the transaction and its data. While these are generally available via msg.sender and msg.data, they should not be accessed in such a direct manner, since when dealing with meta-transactions the account sending and paying for execution may not be the actual sender (as far as an application is concerned). This contract is only required for intermediate, library-like contracts.\",\"kind\":\"dev\",\"methods\":{},\"version\":1},\"userdoc\":{\"kind\":\"user\",\"methods\":{},\"version\":1}},\"settings\":{\"compilationTarget\":{\"Solidity/course/2.Data_structures/checker/Context.sol\":\"Context\"},\"evmVersion\":\"london\",\"libraries\":{},\"metadata\":{\"bytecodeHash\":\"ipfs\"},\"optimizer\":{\"enabled\":false,\"runs\":200},\"remappings\":[]},\"sources\":{\"Solidity/course/2.Data_structures/checker/Context.sol\":{\"keccak256\":\"0x2c36c9489879b7c91cdd73bbe8b2584f401aa26f4f252c04f053e824d6ca75c6\",\"license\":\"MIT\",\"urls\":[\"bzz-raw://3ef20575fc12fd27f252acd28a8d0f65893832f29fd9c82f7ec165121af4572f\",\"dweb:/ipfs/QmZMCoWWDTjhs1CNFMWv4JNWVyyeuzyqteCHhF4heCUYJJ\"]}},\"version\":1}",
					"storageLayout": {
						"storage": [],
						"types": null
					},
					"userdoc": {
						"kind": "user",
						"methods": {},
						"version": 1
					}
				}
			}
		},
		"sources": {
			"Solidity/course/2.Data_structures/checker/Context.sol": {
				"ast": {
					"absolutePath": "Solidity/course/2.Data_structures/checker/Context.sol",
					"exportedSymbols": {
						"Context": [
							21
						]
					},
					"id": 22,
					"license": "MIT",
					"nodeType": "SourceUnit",
					"nodes": [
						{
							"id": 1,
							"literals": [
								"solidity",
								"^",
								"0.8",
								".0"
							],
							"nodeType": "PragmaDirective",
							"src": "89:23:0"
						},
						{
							"abstract": true,
							"baseContracts": [],
							"canonicalName": "Context",
							"contractDependencies": [],
							"contractKind": "contract",
							"documentation": {
								"id": 2,
								"nodeType": "StructuredDocumentation",
								"src": "116:505:0",
								"text": " @dev Provides information about the current execution context, including the\n sender of the transaction and its data. While these are generally available\n via msg.sender and msg.data, they should not be accessed in such a direct\n manner, since when dealing with meta-transactions the account sending and\n paying for execution may not be the actual sender (as far as an application\n is concerned).\n This contract is only required for intermediate, library-like contracts."
							},
							"fullyImplemented": true,
							"id": 21,
							"linearizedBaseContracts": [
								21
							],
							"name": "Context",
							"nameLocation": "641:7:0",
							"nodeType": "ContractDefinition",
							"nodes": [
								{
									"body": {
										"id": 10,
										"nodeType": "Block",
										"src": "718:36:0",
										"statements": [
											{
												"expression": {
													"expression": {
														"id": 7,
														"name": "msg",
														"nodeType": "Identifier",
														"overloadedDeclarations": [],
														"referencedDeclaration": 4294967281,
														"src": "736:3:0",
														"typeDescriptions": {
															"typeIdentifier": "t_magic_message",
															"typeString": "msg"
														}
													},
													"id": 8,
													"isConstant": false,
													"isLValue": false,
													"isPure": false,
													"lValueRequested": false,
													"memberName": "sender",
													"nodeType": "MemberAccess",
													"src": "736:10:0",
													"typeDescriptions": {
														"typeIdentifier": "t_address",
														"typeString": "address"
													}
												},
												"functionReturnParameters": 6,
												"id": 9,
												"nodeType": "Return",
												"src": "729:17:0"
											}
										]
									},
									"id": 11,
									"implemented": true,
									"kind": "function",
									"modifiers": [],
									"name": "_msgSender",
									"nameLocation": "665:10:0",
									"nodeType": "FunctionDefinition",
									"parameters": {
										"id": 3,
										"nodeType": "ParameterList",
										"parameters": [],
										"src": "675:2:0"
									},
									"returnParameters": {
										"id": 6,
										"nodeType": "ParameterList",
										"parameters": [
											{
												"constant": false,
												"id": 5,
												"mutability": "mutable",
												"name": "",
												"nameLocation": "-1:-1:-1",
												"nodeType": "VariableDeclaration",
												"scope": 11,
												"src": "709:7:0",
												"stateVariable": false,
												"storageLocation": "default",
												"typeDescriptions": {
													"typeIdentifier": "t_address",
													"typeString": "address"
												},
												"typeName": {
													"id": 4,
													"name": "address",
													"nodeType": "ElementaryTypeName",
													"src": "709:7:0",
													"stateMutability": "nonpayable",
													"typeDescriptions": {
														"typeIdentifier": "t_address",
														"typeString": "address"
													}
												},
												"visibility": "internal"
											}
										],
										"src": "708:9:0"
									},
									"scope": 21,
									"src": "656:98:0",
									"stateMutability": "view",
									"virtual": true,
									"visibility": "internal"
								},
								{
									"body": {
										"id": 19,
										"nodeType": "Block",
										"src": "829:34:0",
										"statements": [
											{
												"expression": {
													"expression": {
														"id": 16,
														"name": "msg",
														"nodeType": "Identifier",
														"overloadedDeclarations": [],
														"referencedDeclaration": 4294967281,
														"src": "847:3:0",
														"typeDescriptions": {
															"typeIdentifier": "t_magic_message",
															"typeString": "msg"
														}
													},
													"id": 17,
													"isConstant": false,
													"isLValue": false,
													"isPure": false,
													"lValueRequested": false,
													"memberName": "data",
													"nodeType": "MemberAccess",
													"src": "847:8:0",
													"typeDescriptions": {
														"typeIdentifier": "t_bytes_calldata_ptr",
														"typeString": "bytes calldata"
													}
												},
												"functionReturnParameters": 15,
												"id": 18,
												"nodeType": "Return",
												"src": "840:15:0"
											}
										]
									},
									"id": 20,
									"implemented": true,
									"kind": "function",
									"modifiers": [],
									"name": "_msgData",
									"nameLocation": "771:8:0",
									"nodeType": "FunctionDefinition",
									"parameters": {
										"id": 12,
										"nodeType": "ParameterList",
										"parameters": [],
										"src": "779:2:0"
									},
									"returnParameters": {
										"id": 15,
										"nodeType": "ParameterList",
										"parameters": [
											{
												"constant": false,
												"id": 14,
												"mutability": "mutable",
												"name": "",
												"nameLocation": "-1:-1:-1",
												"nodeType": "VariableDeclaration",
												"scope": 20,
												"src": "813:14:0",
												"stateVariable": false,
												"storageLocation": "calldata",
												"typeDescriptions": {
													"typeIdentifier": "t_bytes_calldata_ptr",
													"typeString": "bytes"
												},
												"typeName": {
													"id": 13,
													"name": "bytes",
													"nodeType": "ElementaryTypeName",
													"src": "813:5:0",
													"typeDescriptions": {
														"typeIdentifier": "t_bytes_storage_ptr",
														"typeString": "bytes"
													}
												},
												"visibility": "internal"
											}
										],
										"src": "812:16:0"
									},
									"scope": 21,
									"src": "762:101:0",
									"stateMutability": "view",
									"virtual": true,
									"visibility": "internal"
								}
							],
							"scope": 22,
							"src": "623:243:0",
							"usedErrors": []
						}
					],
					"src": "89:777:0"
				},
				"id": 0
			}
		}
	}
}